﻿<?xml version="1.0" encoding="utf-8"?>
<svg version="1.1" xmlns:xlink="http://www.w3.org/1999/xlink" width="12px" height="12px" viewBox="1084 416  12 12" xmlns="http://www.w3.org/2000/svg">
  <path d="M 1090 416  C 1093.36 416  1096 418.64  1096 422  C 1096 425.36  1093.36 428  1090 428  C 1086.64 428  1084 425.36  1084 422  C 1084 418.64  1086.64 416  1090 416  Z " fill-rule="nonzero" fill="#ffffff" stroke="none" />
  <path d="M 1090 416.5  C 1093.08 416.5  1095.5 418.92  1095.5 422  C 1095.5 425.08  1093.08 427.5  1090 427.5  C 1086.92 427.5  1084.5 425.08  1084.5 422  C 1084.5 418.92  1086.92 416.5  1090 416.5  Z " stroke-width="1" stroke="#797979" fill="none" />
</svg>