﻿<?xml version="1.0" encoding="utf-8"?>
<svg version="1.1" xmlns:xlink="http://www.w3.org/1999/xlink" width="460px" height="74px" xmlns="http://www.w3.org/2000/svg">
  <defs>
    <filter x="612px" y="626px" width="460px" height="74px" filterUnits="userSpaceOnUse" id="filter81">
      <feOffset dx="2" dy="2" in="SourceAlpha" result="shadowOffsetInner" />
      <feGaussianBlur stdDeviation="2.5" in="shadowOffsetInner" result="shadowGaussian" />
      <feComposite in2="shadowGaussian" operator="atop" in="SourceAlpha" result="shadowComposite" />
      <feColorMatrix type="matrix" values="0 0 0 0 1  0 0 0 0 0.8  0 0 0 0 1  0 0 0 0.2 0  " in="shadowComposite" />
    </filter>
    <g id="widget82">
      <path d="M 616 631  A 1 1 0 0 1 617 630 L 1063 630  A 1 1 0 0 1 1064 631 L 1064 691  A 1 1 0 0 1 1063 692 L 617 692  A 1 1 0 0 1 616 691 L 616 631  Z " fill-rule="nonzero" fill="#f2f2f2" stroke="none" fill-opacity="0.309803921568627" />
      <path d="M 615.5 631  A 1.5 1.5 0 0 1 617 629.5 L 1063 629.5  A 1.5 1.5 0 0 1 1064.5 631 L 1064.5 691  A 1.5 1.5 0 0 1 1063 692.5 L 617 692.5  A 1.5 1.5 0 0 1 615.5 691 L 615.5 631  Z " stroke-width="1" stroke="#c9c9c9" fill="none" stroke-opacity="0.4" />
    </g>
  </defs>
  <g transform="matrix(1 0 0 1 -612 -626 )">
    <use xlink:href="#widget82" filter="url(#filter81)" />
    <use xlink:href="#widget82" />
  </g>
</svg>