﻿<?xml version="1.0" encoding="utf-8"?>
<svg version="1.1" xmlns:xlink="http://www.w3.org/1999/xlink" width="633px" height="675px" xmlns="http://www.w3.org/2000/svg">
  <defs>
    <filter x="1372px" y="242px" width="633px" height="675px" filterUnits="userSpaceOnUse" id="filter125">
      <feOffset dx="2" dy="2" in="SourceAlpha" result="shadowOffsetInner" />
      <feGaussianBlur stdDeviation="2.5" in="shadowOffsetInner" result="shadowGaussian" />
      <feComposite in2="shadowGaussian" operator="atop" in="SourceAlpha" result="shadowComposite" />
      <feColorMatrix type="matrix" values="0 0 0 0 1  0 0 0 0 0.8  0 0 0 0 1  0 0 0 0.2 0  " in="shadowComposite" />
    </filter>
    <g id="widget126">
      <path d="M 1376 247  A 1 1 0 0 1 1377 246 L 1996 246  A 1 1 0 0 1 1997 247 L 1997 908  A 1 1 0 0 1 1996 909 L 1377 909  A 1 1 0 0 1 1376 908 L 1376 247  Z " fill-rule="nonzero" fill="#f2f2f2" stroke="none" fill-opacity="0.309803921568627" />
      <path d="M 1375.5 247  A 1.5 1.5 0 0 1 1377 245.5 L 1996 245.5  A 1.5 1.5 0 0 1 1997.5 247 L 1997.5 908  A 1.5 1.5 0 0 1 1996 909.5 L 1377 909.5  A 1.5 1.5 0 0 1 1375.5 908 L 1375.5 247  Z " stroke-width="1" stroke="#c9c9c9" fill="none" stroke-opacity="0.4" />
    </g>
  </defs>
  <g transform="matrix(1 0 0 1 -1372 -242 )">
    <use xlink:href="#widget126" filter="url(#filter125)" />
    <use xlink:href="#widget126" />
  </g>
</svg>