﻿<?xml version="1.0" encoding="utf-8"?>
<svg version="1.1" xmlns:xlink="http://www.w3.org/1999/xlink" width="12px" height="12px" viewBox="1681 500  12 12" xmlns="http://www.w3.org/2000/svg">
  <path d="M 1681.5 500.5  L 1692.5 500.5  L 1692.5 511.5  L 1681.5 511.5  L 1681.5 500.5  Z " fill-rule="nonzero" fill="#f0f0f0" stroke="none" />
  <path d="M 1681.5 500.5  L 1692.5 500.5  L 1692.5 511.5  L 1681.5 511.5  L 1681.5 500.5  Z " stroke-width="1" stroke="#797979" fill="none" />
  <path d="M 1683.57142857143 506  L 1686.14285714286 508.571428571429  " stroke-width="2.57142857142857" stroke="#797979" fill="none" />
  <path d="M 1686.14285714286 508.571428571429  L 1690.42857142857 502.571428571429  " stroke-width="2.57142857142857" stroke="#797979" fill="none" />
</svg>