﻿<?xml version="1.0" encoding="utf-8"?>
<svg version="1.1" xmlns:xlink="http://www.w3.org/1999/xlink" width="20px" height="10px" xmlns="http://www.w3.org/2000/svg">
  <g transform="matrix(1 0 0 1 -1868 -410 )">
    <path d="M 19.1679965820313 9.54331770582933  C 19.4718871826172 9.26059359975962  19.4695353515625 8.8040792593149  19.1632928955078 8.52356485877404  L 10.5359242675781 0.632682234074519  C 10.5234091552734 0.621129822716346  10.5062323486328 0.617524526742788  10.4929613037109 0.60670868389423  C 10.489853515625 0.603839956430288  10.4890555908203 0.599498114483173  10.4859478027344 0.59662938701923  C 10.178907421875 0.316812770432692  9.68439223632812 0.318247145432692  9.38045961914062 0.600971228966345  L 0.8328013671875 8.56395954777644  C 0.528910766601562 8.84738143780048  0.53122060546875 9.30315920973558  0.837505029296875 9.58367361027644  C 0.989828295898438 9.7228453500601  1.18906228027344 9.79281888521635  1.38749831542969 9.79281888521635  C 1.58828618164062 9.79281888521635  1.78982998046875 9.72141099759615  1.94219526367187 9.57937053034856  L 9.94611779785156 2.1240683218149  L 18.0633063476563 9.54762078575721  C 18.2156296142578 9.68679252554086  18.4141076416016 9.75676606069712  18.6132996337891 9.75676606069712  C 18.8148434570313 9.75676606069712  19.0156312988281 9.68535817307693  19.1679965820313 9.54331770582933  Z " fill-rule="nonzero" fill="#272636" stroke="none" transform="matrix(1 0 0 1 1868 410 )" />
  </g>
</svg>