﻿<?xml version="1.0" encoding="utf-8"?>
<svg version="1.1" xmlns:xlink="http://www.w3.org/1999/xlink" width="40px" height="40px" xmlns="http://www.w3.org/2000/svg">
  <defs>
    <filter x="1335px" y="931px" width="40px" height="40px" filterUnits="userSpaceOnUse" id="filter127">
      <feOffset dx="5" dy="5" in="SourceAlpha" result="shadowOffsetInner" />
      <feGaussianBlur stdDeviation="2.5" in="shadowOffsetInner" result="shadowGaussian" />
      <feComposite in2="shadowGaussian" operator="atop" in="SourceAlpha" result="shadowComposite" />
      <feColorMatrix type="matrix" values="0 0 0 0 0  0 0 0 0 0  0 0 0 0 0  0 0 0 0.2 0  " in="shadowComposite" />
    </filter>
    <g id="widget128">
      <path d="M 1350 932  C 1357.84 932  1364 938.16  1364 946  C 1364 953.84  1357.84 960  1350 960  C 1342.16 960  1336 953.84  1336 946  C 1336 938.16  1342.16 932  1350 932  Z " fill-rule="nonzero" fill="#ffffff" stroke="none" fill-opacity="0" />
      <path d="M 1350 932  C 1357.84 932  1364 938.16  1364 946  C 1364 953.84  1357.84 960  1350 960  C 1342.16 960  1336 953.84  1336 946  C 1336 938.16  1342.16 932  1350 932  Z " stroke-width="2" stroke="#000000" fill="none" />
    </g>
  </defs>
  <g transform="matrix(1 0 0 1 -1335 -931 )">
    <use xlink:href="#widget128" filter="url(#filter127)" />
    <use xlink:href="#widget128" />
  </g>
</svg>