﻿<?xml version="1.0" encoding="utf-8"?>
<svg version="1.1" xmlns:xlink="http://www.w3.org/1999/xlink" width="12px" height="12px" viewBox="1164 326  12 12" xmlns="http://www.w3.org/2000/svg">
  <path d="M 1164.5 326.5  L 1175.5 326.5  L 1175.5 337.5  L 1164.5 337.5  L 1164.5 326.5  Z " fill-rule="nonzero" fill="#f0f0f0" stroke="none" />
  <path d="M 1164.5 326.5  L 1175.5 326.5  L 1175.5 337.5  L 1164.5 337.5  L 1164.5 326.5  Z " stroke-width="1" stroke="#797979" fill="none" />
  <path d="M 1166.57142857143 332  L 1169.14285714286 334.571428571429  " stroke-width="2.57142857142857" stroke="#797979" fill="none" />
  <path d="M 1169.14285714286 334.571428571429  L 1173.42857142857 328.571428571429  " stroke-width="2.57142857142857" stroke="#797979" fill="none" />
</svg>