﻿<?xml version="1.0" encoding="utf-8"?>
<svg version="1.1" xmlns:xlink="http://www.w3.org/1999/xlink" width="12px" height="12px" viewBox="629 371  12 12" xmlns="http://www.w3.org/2000/svg">
  <path d="M 629.5 371.5  L 640.5 371.5  L 640.5 382.5  L 629.5 382.5  L 629.5 371.5  Z " fill-rule="nonzero" fill="#ffffff" stroke="none" />
  <path d="M 629.5 371.5  L 640.5 371.5  L 640.5 382.5  L 629.5 382.5  L 629.5 371.5  Z " stroke-width="1" stroke="#797979" fill="none" />
  <path d="M 631.571428571429 377  L 634.142857142857 379.571428571429  " stroke-width="2.57142857142857" stroke="#797979" fill="none" />
  <path d="M 634.142857142857 379.571428571429  L 638.428571428571 373.571428571429  " stroke-width="2.57142857142857" stroke="#797979" fill="none" />
</svg>