﻿<?xml version="1.0" encoding="utf-8"?>
<svg version="1.1" xmlns:xlink="http://www.w3.org/1999/xlink" width="12px" height="12px" viewBox="551 163  12 12" xmlns="http://www.w3.org/2000/svg">
  <path d="M 557 163  C 560.36 163  563 165.64  563 169  C 563 172.36  560.36 175  557 175  C 553.64 175  551 172.36  551 169  C 551 165.64  553.64 163  557 163  Z " fill-rule="nonzero" fill="#f0f0f0" stroke="none" />
  <path d="M 557 163.5  C 560.08 163.5  562.5 165.92  562.5 169  C 562.5 172.08  560.08 174.5  557 174.5  C 553.92 174.5  551.5 172.08  551.5 169  C 551.5 165.92  553.92 163.5  557 163.5  Z " stroke-width="1" stroke="#797979" fill="none" />
  <path d="M 557 172  C 555.32 172  554 170.68  554 169  C 554 167.32  555.32 166  557 166  C 558.68 166  560 167.32  560 169  C 560 170.68  558.68 172  557 172  " fill-rule="nonzero" fill="#797979" stroke="none" />
</svg>